{
  "extends": ["tslint:all"],
  "rules": {
    "completed-docs": false,
    "curly": false,
    "interface-name": false,
    "max-classes-per-file": false,
    "max-file-line-count": [true, 200],
    "max-line-length": [true, 200],
    "member-ordering": false,
    "no-console": false,
    "no-inferrable-types": false,
    "no-namespace": [true, "allow-declarations"],
    "no-non-null-assertion": false,
    "no-parameter-properties": false,
    "no-require-imports": false,
    "no-null-keyword": false,
    "quotemark": [true, "single"],
    "object-literal-sort-keys": false,
    "one-line": false,
    "only-arrow-functions": false,
    "ordered-imports": [true, {"import-sources-order": "lowercase-last", "named-imports-order": "lowercase-last"}],
    "promise-function-async": false,
    "semicolon": [true, "never"],
    "trailing-comma": [true, {"multiline": "never", "singleline": "never"}],
    "typedef": [true, "array-destructuring", "arrow-call-signature", "arrow-parameter", "call-signature", "member-variable-declaration", "object-destructuring", "parameter", "property-declaration", "variable-declaration"],
    "typedef-whitespace": false,
    "variable-name": [true, "ban-keywords", "check-format", "allow-pascal-case"],
    "whitespace": [true, "check-branch", "check-decl", "check-operator", "check-preblock", "check-separator", "check-typecast"]
  }
}
